{
    "CFNetwork.framework": 1,
    "AdSupport.framework": 1,
    "AudioToolbox.framework": 2,
    "AVFoundation.framework": 2,
    "CoreBluetooth.framework": 1,
    "CoreLocation.framework": 3,
    "CoreMedia.framework": 1,
    "CoreMotion.framework": 1,
    "CoreTelephony.framework": 1,
    "CoreVideo.framework": 1,
    "EventKit.framework": 1,
    "EventKitUI.framework": 1,
    "Foundation.framework": 1,
    "GLKit.framework": 1,
    "MediaPlayer.framework": 1,
    "MessageUI.framework": 4,
    "OpenGLES.framework": 1,
    "SafariServices.framework": 2,
    "StoreKit.framework": 1,
    "SystemConfiguration.framework": 2,
    "UIKit.framework": 1,
    "ImageIO.framework": 1,
    "AddressBook.framework": 2,
    "AddressBookUI.framework": 1,
    "libz.tbd": 2,
    "CoreText.framework": 1,
    "Security.framework": 1,
    "libz.dylib": 1,
    "Social.framework": 1
}